{
  "ansible": {
    "enabled": true
  },
  "bazel": {
    "enabled": true
  },
  "buildkite": {
    "enabled": true
  },
  "bundler": {
    "enabled": true
  },
  "cargo": {
    "enabled": true
  },
  "cdnurl": {
    "enabled": true
  },
  "circleci": {
    "enabled": true
  },
  "cocoapods": {
    "enabled": true
  },
  "composer": {
    "enabled": true
  },
  "deps-edn": {
    "enabled": true
  },
  "dockerfile": {
    "enabled": true
  },
  "docker-compose": {
    "enabled": true
  },
  "droneci": {
    "enabled": true
  },
  "github-actions": {
    "enabled": true
  },
  "gitlabci": {
    "enabled": true
  },
  "gitlabci-include": {
    "enabled": true
  },
  "git-submodules": {
    "enabled": true
  },
  "gomod": {
    "enabled": true
  },
  "gradle": {
    "enabled": true
  },
  "gradle-wrapper": {
    "enabled": true
  },
  "helm-requirements": {
    "enabled": true
  },
  "homebrew": {
    "enabled": true
  },
  "html": {
    "enabled": true
  },
  "kubernetes": {
    "enabled": true
  },
  "leiningen": {
    "enabled": true
  },
  "maven": {
    "enabled": true
  },
  "meteor": {
    "enabled": true
  },
  "mix": {
    "enabled": true
  },
  "npm": {
    "enabled": true
  },
  "nuget": {
    "enabled": true
  },
  "nvm": {
    "enabled": true
  },
  "pipenv": {
    "enabled": true
  },
  "pip_requirements": {
    "enabled": true
  },
  "pip_setup": {
    "enabled": true
  },
  "poetry": {
    "enabled": true
  },
  "pub": {
    "enabled": true
  },
  "ruby-version": {
    "enabled": true
  },
  "sbt": {
    "enabled": true
  },
  "swift": {
    "enabled": true
  },
  "terraform": {
    "enabled": true
  },
  "travis": {
    "enabled": true
  }
}
